%YAML 1.1
%TAG !u! tag:unity3d.com,2011:
--- !u!114 &11400000
MonoBehaviour:
  m_ObjectHideFlags: 0
  m_CorrespondingSourceObject: {fileID: 0}
  m_PrefabInstance: {fileID: 0}
  m_PrefabAsset: {fileID: 0}
  m_GameObject: {fileID: 0}
  m_Enabled: 1
  m_EditorHideFlags: 0
  m_Script: {fileID: 11500000, guid: 67d93ece16064824b8899c29a06f5dd5, type: 3}
  m_Name: CoreDefinition
  m_EditorClassIdentifier: 
  m_SphereViewPrefab: {fileID: 8345026910135870493, guid: fb7b70a3c3419fa4d98f22f1b82a24e5, type: 3}
  m_CursorFollowerLerpValue: 0.1
  m_SphereStartScale: 0
  m_SphereDefaultScale: 0.7
  m_SphereScaleLerpValue: 0.05
  m_SphereMoveLerpValue: 0.05
